…
``` r
df_palabra %>% 
  count(Region, palabra) %>% 
  filter(n > 5) %>% 
  arrange(Region, desc(n))
```

    ## # A tibble: 2,136 x 3
    ##    Region             palabra          n
    ##    <fct>              <chr>        <int>
    ##  1 Arica y parinacota arica          163
    ##  2 Arica y parinacota ruta           159
    ##  3 Arica y parinacota sector         126
    ##  4 Arica y parinacota conservacion   125
    ##  5 Arica y parinacota reposicion     111
    ##  6 Arica y parinacota region          97
    ##  7 Arica y parinacota construccion    77
    ##  8 Arica y parinacota mejoramiento    57
    ##  9 Arica y parinacota vial            51
    ## 10 Arica y parinacota red             50
    ## # ... with 2,126 more rows
